<!-- Generated by IcoMoon.io -->
<svg version="1.1" xmlns="http://www.w3.org/2000/svg" width="32" height="32" viewBox="0 0 32 32">
<title>adres-icon</title>
<path d="M16 0c-6.191 0-11.2 5.009-11.2 11.2 0 8.401 11.2 20.8 11.2 20.8s11.2-12.401 11.2-20.8c0-6.191-5.007-11.2-11.2-11.2v0zM16 15.2c-2.208 0-4-1.792-4-4s1.792-4 4-4 4 1.792 4 4-1.792 4-4 4v0z"></path>
</svg>
