<?xml version="1.0" encoding="UTF-8" standalone="no"?>
<svg
   xmlns:dc="http://purl.org/dc/elements/1.1/"
   xmlns:cc="http://creativecommons.org/ns#"
   xmlns:rdf="http://www.w3.org/1999/02/22-rdf-syntax-ns#"
   xmlns:svg="http://www.w3.org/2000/svg"
   xmlns="http://www.w3.org/2000/svg"
   version="1.1"
   id="svg2"
   viewBox="0 0 31.199 31.199999"
   height="8.8053331mm"
   width="8.8050508mm">
  <defs
     id="defs4" />
  <metadata
     id="metadata7">
    <rdf:RDF>
      <cc:Work
         rdf:about="">
        <dc:format>image/svg+xml</dc:format>
        <dc:type
           rdf:resource="http://purl.org/dc/dcmitype/StillImage" />
        <dc:title></dc:title>
      </cc:Work>
    </rdf:RDF>
  </metadata>
  <g
     transform="translate(38.701363,-406.53346)"
     id="layer1">
    <path
       style="fill:#434549;fill-opacity:1"
       d="m -32.427363,420.03746 c 2.513,4.912 6.511,8.909 11.422,11.423 l 3.814,-3.815 c 0.467,-0.468 1.161,-0.624 1.767,-0.414 1.942,0.638 4.041,0.987 6.1889998,0.987 0.954,0 1.733,0.78 1.733,1.732 l 0,6.05 c 0,0.954 -0.78,1.733 -1.733,1.733 -16.2739998,0 -29.4659998,-13.191 -29.4659998,-29.467 0,-0.954 0.78,-1.733 1.733,-1.733 l 6.066,0 c 0.954,0 1.733,0.78 1.733,1.733 0,2.166 0.346,4.245 0.987,6.189 0.192,0.607 0.052,1.283 -0.433,1.767 l -3.813,3.814 z"
       id="path4192" />
  </g>
</svg>
