<!-- Generated by IcoMoon.io -->
<svg version="1.1" xmlns="http://www.w3.org/2000/svg" width="32" height="32" viewBox="0 0 32 32">
<title>untitled5</title>
<path d="M30.845 16.685h-29.654c-0.29-0.002-0.549-0.179-0.659-0.447-0.11-0.27-0.048-0.579 0.156-0.788l8.531-8.682c0.27-0.278 0.715-0.282 0.99-0.011 0.004 0.003 0.007 0.007 0.012 0.011 0.278 0.284 0.278 0.738 0 1.023l-7.314 7.443h27.939c0.396 0 0.71 0.326 0.71 0.726 0.006 0.395-0.313 0.718-0.71 0.722v0 0.002zM9.719 25.364c-0.189-0.001-0.37-0.077-0.5-0.214l-5.689-5.783c-0.277-0.285-0.277-0.739 0-1.025 0.271-0.278 0.716-0.285 0.994-0.013 0.003 0.004 0.006 0.009 0.013 0.013l5.686 5.789c0.276 0.285 0.276 0.736 0 1.020-0.135 0.139-0.315 0.214-0.505 0.214v0z"></path>
</svg>
